wkt_geom,sensor_id,start_time,end_time,location_lat,location_lng,link_name,link_direction,lane_count,count,here_id,here_dir,HubDist
"LineString (-122.6893299122314005 45.55146063467500284, -122.68771499999999719 45.55057999999999652)",12,2017-11-14T00:00:00-08:00,2017-11-14T01:00:00-08:00,45.55146063,-122.6893299,N GREELEY AVENUE,N,,83,1060812810,F,159.6308825
"LineString (-122.6893299122314005 45.55146063467500284, -122.68771499999999719 45.55057999999999652)",12,2017-11-14T00:00:00-08:00,2017-11-14T01:00:00-08:00,45.55146063,-122.6893299,N GREELEY AVENUE,S,,117,1060812810,T,159.6308825
"LineString (-122.53317010700961021 45.56822555206586145, -122.53886500000000126 45.57039500000000487)",61,2017-11-28T00:00:00-08:00,2017-11-28T01:00:00-08:00,45.56822555,-122.5331701,NE MARINE DRIVE,E,,61,21288996,T,505.7348367
"LineString (-122.53317010700961021 45.56822555206586145, -122.53886500000000126 45.57039500000000487)",61,2017-11-28T00:00:00-08:00,2017-11-28T01:00:00-08:00,45.56822555,-122.5331701,NE MARINE DRIVE,W,,35,21288996,F,505.7348367
"LineString (-122.53467767293005863 45.56611346300513077, -122.53464499999999759 45.56602999999999781)",62,2017-11-30T00:00:00-08:00,2017-11-30T01:00:00-08:00,45.56611346,-122.5346777,NE AIRPORT WAY,E,,136,759646654,T,9.620598577
"LineString (-122.53467767293005863 45.56611346300513077, -122.53464499999999759 45.56602999999999781)",62,2017-11-30T00:00:00-08:00,2017-11-30T01:00:00-08:00,45.56611346,-122.5346777,NE AIRPORT WAY,W,,147,759646656,F,9.620598577
"LineString (-122.53908596011366683 45.55527792912685214, -122.53906000000000631 45.55736999999999881)",64,2017-11-28T00:00:00-08:00,2017-11-28T01:00:00-08:00,45.55527793,-122.539086,NE PRESCOTT STREET,E,,17,,,232.5271344
"LineString (-122.53908596011366683 45.55527792912685214, -122.53906000000000631 45.55736999999999881)",64,2017-11-28T00:00:00-08:00,2017-11-28T01:00:00-08:00,45.55527793,-122.539086,NE PRESCOTT STREET,W,,12,,,232.5271344
"LineString (-122.53916373769322945 45.54805463350071193, -122.53946500000000697 45.54685500000000076)",65,2017-11-28T00:00:00-08:00,2017-11-28T01:00:00-08:00,45.54805463,-122.5391637,NE FREMONT STREET,E,,12,,,135.3899502
"LineString (-122.53916373769322945 45.54805463350071193, -122.53946500000000697 45.54685500000000076)",65,2017-11-28T00:00:00-08:00,2017-11-28T01:00:00-08:00,45.54805463,-122.5391637,NE FREMONT STREET,W,,35,,,135.3899502
"LineString (-122.53814833509618154 45.54653974607933975, -122.53777999999999793 45.54646999999999935)",66,2017-11-28T00:00:00-08:00,2017-11-28T01:00:00-08:00,45.54653975,-122.5381483,I-84,E,,601,124501025,T,29.79084861
"LineString (-122.53814833509618154 45.54653974607933975, -122.53777999999999793 45.54646999999999935)",66,2017-11-28T00:00:00-08:00,2017-11-28T01:00:00-08:00,45.54653975,-122.5381483,I-84,W,,430,743483474,F,29.79084861
"LineString (-122.53932872184074654 45.53720772183353205, -122.53940000000000055 45.53356499999999585)",67,2017-11-28T00:00:00-08:00,2017-11-28T01:00:00-08:00,45.53720772,-122.5393287,NE SAN RAFAEL STREET,E,,3,,,404.8985442
"LineString (-122.53932872184074654 45.53720772183353205, -122.53940000000000055 45.53356499999999585)",67,2017-11-28T00:00:00-08:00,2017-11-28T01:00:00-08:00,45.53720772,-122.5393287,NE SAN RAFAEL STREET,W,,1,,,404.8985442
"LineString (-122.53932764400587985 45.53355708376614785, -122.53940000000000055 45.53356499999999585)",68,2017-11-28T00:00:00-08:00,2017-11-28T01:00:00-08:00,45.53355708,-122.5393276,NE HALSEY STREET,E,,99,759497970,F,5.71991551
"LineString (-122.53932764400587985 45.53355708376614785, -122.53940000000000055 45.53356499999999585)",68,2017-11-28T00:00:00-08:00,2017-11-28T01:00:00-08:00,45.53355708,-122.5393276,NE HALSEY STREET,W,,59,759497970,T,5.71991551
"LineString (-122.53938142055309868 45.52628204280718904, -122.5393449999999973 45.52629000000000303)",69,2017-11-30T00:00:00-08:00,2017-11-30T01:00:00-08:00,45.52628204,-122.5393814,NE GLISAN STREET,E,,126,1061965691,F,2.979511433
"LineString (-122.53938142055309868 45.52628204280718904, -122.5393449999999973 45.52629000000000303)",69,2017-11-30T00:00:00-08:00,2017-11-30T01:00:00-08:00,45.52628204,-122.5393814,NE GLISAN STREET,W,,99,1061965691,T,2.979511433
"LineString (-122.53940498351096267 45.52252461103506675, -122.53967500000000257 45.52258499999999941)",70,2017-11-28T00:00:00-08:00,2017-11-28T01:00:00-08:00,45.52252461,-122.539405,E BURNSIDE STREET,E,,35,19371918,T,22.1375092
"LineString (-122.53940498351096267 45.52252461103506675, -122.53967500000000257 45.52258499999999941)",70,2017-11-28T00:00:00-08:00,2017-11-28T01:00:00-08:00,45.52252461,-122.539405,E BURNSIDE STREET,W,,28,19371920,F,22.1375092
"LineString (-122.53940928506051478 45.51901791117607843, -122.53860000000000241 45.52241499999999519)",71,2017-11-30T00:00:00-08:00,2017-11-30T01:00:00-08:00,45.51901791,-122.5394093,SE STARK STREET,E,,147,,,382.8168827
"LineString (-122.53940928506051478 45.51901791117607843, -122.53860000000000241 45.52241499999999519)",71,2017-11-30T00:00:00-08:00,2017-11-30T01:00:00-08:00,45.51901791,-122.5394093,SE STARK STREET,W,,107,,,382.8168827
"LineString (-122.53947392427609486 45.51155214340192146, -122.54010499999999695 45.50411499999999876)",72,2017-11-28T00:00:00-08:00,2017-11-28T01:00:00-08:00,45.51155214,-122.5394739,SE MARKET STREET,E,,19,,,828.0466848
"LineString (-122.53947392427609486 45.51155214340192146, -122.54010499999999695 45.50411499999999876)",72,2017-11-28T00:00:00-08:00,2017-11-28T01:00:00-08:00,45.51155214,-122.5394739,SE MARKET STREET,W,,17,,,828.0466848
"LineString (-122.53961073786733493 45.49702779674777986, -122.53954500000000394 45.49702500000000072)",74,2017-11-28T00:00:00-08:00,2017-11-28T01:00:00-08:00,45.4970278,-122.5396107,SE POWELL BOULEVARD,E,,133,1050717383,F,5.147608185
"LineString (-122.53961073786733493 45.49702779674777986, -122.53954500000000394 45.49702500000000072)",74,2017-11-28T00:00:00-08:00,2017-11-28T01:00:00-08:00,45.4970278,-122.5396107,SE POWELL BOULEVARD,W,,99,1050717383,T,5.147608185
"LineString (-122.53974078657658708 45.48965974223678188, -122.54010999999999854 45.49699999999999989)",75,2017-11-30T00:00:00-08:00,2017-11-30T01:00:00-08:00,45.48965974,-122.5397408,SE HOLGATE BOULEVARD,E,,47,,,816.3169902
"LineString (-122.53974078657658708 45.48965974223678188, -122.54010999999999854 45.49699999999999989)",75,2017-11-30T00:00:00-08:00,2017-11-30T01:00:00-08:00,45.48965974,-122.5397408,SE HOLGATE BOULEVARD,W,,75,,,816.3169902
"LineString (-122.53958303088907655 45.48316320751870734, -122.54010999999999854 45.49699999999999989)",76,2017-11-30T00:00:00-08:00,2017-11-30T01:00:00-08:00,45.48316321,-122.539583,SE HAROLD STREET,E,,10,,,1538.391498
"LineString (-122.53958303088907655 45.48316320751870734, -122.54010999999999854 45.49699999999999989)",76,2017-11-30T00:00:00-08:00,2017-11-30T01:00:00-08:00,45.48316321,-122.539583,SE HAROLD STREET,W,,12,,,1538.391498
"LineString (-122.5396760212502727 45.47651501169166011, -122.54010999999999854 45.49699999999999989)",77,2017-11-30T00:00:00-08:00,2017-11-30T01:00:00-08:00,45.47651501,-122.539676,SE FOSTER STREET,E,,157,,,2276.980794
"LineString (-122.5396760212502727 45.47651501169166011, -122.54010999999999854 45.49699999999999989)",77,2017-11-30T00:00:00-08:00,2017-11-30T01:00:00-08:00,45.47651501,-122.539676,SE FOSTER STREET,W,,82,,,2276.980794
"LineString (-122.68690968642908956 45.58824161369829397, -122.68690999999999747 45.58755999999999631)",105,2017-11-14T00:00:00-08:00,2017-11-14T01:00:00-08:00,45.58824161,-122.6869097,NORTH DENVER AVE,N,,44,925125737,F,75.75677685
"LineString (-122.68690968642908956 45.58824161369829397, -122.68690999999999747 45.58755999999999631)",105,2017-11-14T00:00:00-08:00,2017-11-14T01:00:00-08:00,45.58824161,-122.6869097,NORTH DENVER AVE,S,,31,925125737,T,75.75677685
"LineString (-122.66767038894758457 45.58394538774737725, -122.66772500000000434 45.58373000000000275)",107,2017-11-14T00:00:00-08:00,2017-11-14T01:00:00-08:00,45.58394539,-122.6676704,N VANCOUVER AVENUE,N,,35,762153459,F,24.31530936
"LineString (-122.66186607474772075 45.58261203317731969, -122.66174000000000888 45.58241499999999746)",108,2017-11-28T00:00:00-08:00,2017-11-28T01:00:00-08:00,45.58261203,-122.6618661,STH 99E,N,,95,21300169,F,24.00779658
"LineString (-122.66186607474772075 45.58261203317731969, -122.66174000000000888 45.58241499999999746)",108,2017-11-28T00:00:00-08:00,2017-11-28T01:00:00-08:00,45.58261203,-122.6618661,STH 99E,S,,93,21300169,T,24.00779658
"LineString (-122.69336626018217373 45.55751436015841449, -122.69333000000000311 45.5574799999999982)",109,2017-12-07T00:00:00-08:00,2017-12-07T01:00:00-08:00,45.55751436,-122.6933663,N GREELEY AVENUE,S,,38,762084305,T,4.753861058
"LineString (-122.68229147852869687 45.55731492766575741, -122.68220999999999776 45.55720499999999618)",110,2017-11-30T00:00:00-08:00,2017-11-30T01:00:00-08:00,45.55731493,-122.6822915,N INTERSTATE BOULEVARD,N,,55,21302919,F,13.7747189
"LineString (-122.67859782829458482 45.55894788954429231, -122.67869999999999209 45.56005000000000393)",111,2017-11-28T00:00:00-08:00,2017-11-28T01:00:00-08:00,45.55894789,-122.6785978,I-5,N,,742,124512352,F,122.7510204
"LineString (-122.67859782829458482 45.55894788954429231, -122.67869999999999209 45.56005000000000393)",111,2017-11-28T00:00:00-08:00,2017-11-28T01:00:00-08:00,45.55894789,-122.6785978,I-5,S,,475,124512351,T,122.7510204
"LineString (-122.66808819806405495 45.55667920190953879, -122.66154500000000382 45.55685499999999877)",113,2017-11-30T00:00:00-08:00,2017-11-30T01:00:00-08:00,45.5566792,-122.6680882,N VANCOUVER AVENUE,S,,28,,,511.2630171
"LineString (-122.66671297239348348 45.55685322782554891, -122.66154500000000382 45.55685499999999877)",114,2017-11-28T00:00:00-08:00,2017-11-28T01:00:00-08:00,45.55685323,-122.666713,N WILLIAMS AVENUE,N,,39,,,403.5120453
"LineString (-122.66154200209197711 45.55693276309240503, -122.66154500000000382 45.55685499999999877)",115,2017-11-30T00:00:00-08:00,2017-11-30T01:00:00-08:00,45.55693276,-122.661542,NE MLK JR. BOULEVARD,N,,119,21303017,F,8.645966129
"LineString (-122.63854941374265195 45.46622236778584636, -122.6385400000000061 45.46618500000000296)",152,2017-11-14T18:00:00-08:00,2017-11-14T19:00:00-08:00,45.46622237,-122.6385494,HWY 99E - SE MCLOUGHLIN BLVD,N,,1156,762542190,F,4.217835335
"LineString (-122.63854941374265195 45.46622236778584636, -122.6385400000000061 45.46618500000000296)",152,2017-11-14T18:00:00-08:00,2017-11-14T19:00:00-08:00,45.46622237,-122.6385494,HWY 99E - SE MCLOUGHLIN BLVD,S,,2099,762542190,T,4.217835335
"LineString (-122.61642511484834017 45.46227656357189773, -122.62266999999999939 45.47944499999999834)",153,2017-11-28T00:00:00-08:00,2017-11-28T01:00:00-08:00,45.46227656,-122.6164251,SE 45TH PLACE,N,,37,,,1969.61561
"LineString (-122.57903449506822824 45.46312178695256279, -122.5790800000000047 45.46296499999999696)",156,2017-11-15T00:00:00-08:00,2017-11-15T01:00:00-08:00,45.46312179,-122.5790345,SE 82ND AVENUE,S,,75,21319694,T,17.78514705
"LineString (-122.56860470796937079 45.46641031736789529, -122.56708499999999162 45.46622999999999593)",158,2017-11-15T00:00:00-08:00,2017-11-15T01:00:00-08:00,45.46641032,-122.5686047,SE 92ND AVENUE,N,,32,,,120.5260463
"LineString (-122.56860470796937079 45.46641031736789529, -122.56708499999999162 45.46622999999999593)",158,2017-11-15T00:00:00-08:00,2017-11-15T01:00:00-08:00,45.46641032,-122.5686047,SE 92ND AVENUE,S,,26,,,120.5260463
"LineString (-122.36177353685425828 45.43259349355578536, -122.36181999999999448 45.43256000000000228)",189,2017-11-16T00:00:00-08:00,2017-11-16T01:00:00-08:00,45.43259349,-122.3617735,STH 212-CLACKAMAS HWY,E,,33,109796699,F,5.20345262
"LineString (-122.36177353685425828 45.43259349355578536, -122.36181999999999448 45.43256000000000228)",189,2017-11-16T00:00:00-08:00,2017-11-16T01:00:00-08:00,45.43259349,-122.3617735,STH 212-CLACKAMAS HWY,W,,17,109796699,T,5.20345262
"LineString (-122.39833110870176824 45.48251462548559942, -122.39802000000000248 45.4812650000000005)",193,2017-11-16T00:00:00-08:00,2017-11-16T01:00:00-08:00,45.48251463,-122.3983311,US 26,E,,94,727665629,T,140.9987131
"LineString (-122.39833110870176824 45.48251462548559942, -122.39802000000000248 45.4812650000000005)",193,2017-11-16T00:00:00-08:00,2017-11-16T01:00:00-08:00,45.48251463,-122.3983311,US 26,W,,39,727665629,F,140.9987131
"LineString (-122.57913783225757243 45.42220682316076363, -122.57894999999999186 45.42217999999999734)",201,2017-11-15T00:00:00-08:00,2017-11-15T01:00:00-08:00,45.42220682,-122.5791378,HWY 224-MILWAUKIE EXPRWY,E,,178,825727315,T,15.00003294
"LineString (-122.57913783225757243 45.42220682316076363, -122.57894999999999186 45.42217999999999734)",201,2017-11-15T00:00:00-08:00,2017-11-15T01:00:00-08:00,45.42220682,-122.5791378,HWY 224-MILWAUKIE EXPRWY,W,,95,825727315,F,15.00003294
"LineString (-122.67373310270967579 45.53207357970803315, -122.67407500000000198 45.53190499999999474)",208,2017-11-29T00:00:00-08:00,2017-11-29T01:00:00-08:00,45.53207358,-122.6737331,BROADWAY BRIDGE,E,,1225,124453572,F,32.62372893
"LineString (-122.67373310270967579 45.53207357970803315, -122.67407500000000198 45.53190499999999474)",208,2017-11-29T00:00:00-08:00,2017-11-29T01:00:00-08:00,45.53207358,-122.6737331,BROADWAY BRIDGE,W,,983,124453572,T,32.62372893
"LineString (-122.66944250093031599 45.52743675682530267, -122.66889000000000465 45.52776000000000067)",209,2017-12-07T00:00:00-08:00,2017-12-07T01:00:00-08:00,45.52743676,-122.6694425,STEEL BRIDGE,E,,64,874982817,F,56.15665355
"LineString (-122.66944250093031599 45.52743675682530267, -122.66889000000000465 45.52776000000000067)",209,2017-12-07T00:00:00-08:00,2017-12-07T01:00:00-08:00,45.52743676,-122.6694425,STEEL BRIDGE,W,,36,874982817,T,56.15665355
"LineString (-122.66755087494762222 45.52300852245134166, -122.66758999999998991 45.52304999999999779)",210,2017-12-07T00:00:00-08:00,2017-12-07T01:00:00-08:00,45.52300852,-122.6675509,BURNSIDE BRIDGE,W,,134,995621000,F,5.53123125
"LineString (-122.66913738395770395 45.51764198465274092, -122.66962000000000899 45.51780499999999563)",211,2017-11-29T00:00:00-08:00,2017-11-29T01:00:00-08:00,45.51764198,-122.6691374,MORRISON BRIDGE,E,,201,995484780,T,41.83523427
"LineString (-122.66913738395770395 45.51764198465274092, -122.66962000000000899 45.51780499999999563)",211,2017-11-29T00:00:00-08:00,2017-11-29T01:00:00-08:00,45.51764198,-122.6691374,MORRISON BRIDGE,W,,169,995484780,F,41.83523427
"LineString (-122.66499740454840151 45.50119417867178129, -122.66644999999999754 45.50113000000000341)",214,2017-11-29T00:00:00-08:00,2017-11-29T01:00:00-08:00,45.50119418,-122.6649974,ROSS ISLAND BRIDGE,E,,227,1076788149,F,113.7535669
"LineString (-122.66482807537263966 45.46446142244131039, -122.66839999999999122 45.46242999999999768)",215,2017-11-29T00:00:00-08:00,2017-11-29T01:00:00-08:00,45.46446142,-122.6648281,SELLWOOD BRIDGE,E,,56,,,359.1841838
"LineString (-122.66482807537263966 45.46446142244131039, -122.66839999999999122 45.46242999999999768)",215,2017-11-29T00:00:00-08:00,2017-11-29T01:00:00-08:00,45.46446142,-122.6648281,SELLWOOD BRIDGE,W,,43,,,359.1841838
"LineString (-122.6687217436395656 45.40981411130187695, -122.66462999999998829 45.41118500000000324)",325,2017-11-29T00:00:00-08:00,2017-11-29T01:00:00-08:00,45.40981411,-122.6687217,MCVEY AVENUE,E,,15,,,354.6992261
"LineString (-122.6687217436395656 45.40981411130187695, -122.66462999999998829 45.41118500000000324)",325,2017-11-29T00:00:00-08:00,2017-11-29T01:00:00-08:00,45.40981411,-122.6687217,MCVEY AVENUE,W,,21,,,354.6992261
"LineString (-122.538481356538 45.55960750214927657, -122.53906000000000631 45.55736999999999881)",401,2017-11-28T00:00:00-08:00,2017-11-28T01:00:00-08:00,45.5596075,-122.5384814,NE MARX STREET,E,,6,,,252.7525809
"LineString (-122.538481356538 45.55960750214927657, -122.53906000000000631 45.55736999999999881)",401,2017-11-28T00:00:00-08:00,2017-11-28T01:00:00-08:00,45.5596075,-122.5384814,NE MARX STREET,W,,4,,,252.7525809
"LineString (-122.53911102327479909 45.55175675654589895, -122.53946500000000697 45.54685500000000076)",402,2017-11-28T00:00:00-08:00,2017-11-28T01:00:00-08:00,45.55175676,-122.539111,NE SHAVER STREET,E,,2,,,545.4943418
"LineString (-122.53911102327479909 45.55175675654589895, -122.53946500000000697 45.54685500000000076)",402,2017-11-28T00:00:00-08:00,2017-11-28T01:00:00-08:00,45.55175676,-122.539111,NE SHAVER STREET,W,,5,,,545.4943418
"LineString (-122.67899912118393502 45.5582732691755794, -122.67899500000000046 45.55859999999999843)",407,2017-11-28T00:00:00-08:00,2017-11-28T01:00:00-08:00,45.55827327,-122.6789991,SB FACILITY TO I-5/GOING,S,,111,21302814,T,36.3151685
"LineString (-122.6781371787621282 45.55807525391772828, -122.67815999999999121 45.55789000000000044)",408,2017-11-28T00:00:00-08:00,2017-11-28T01:00:00-08:00,45.55807525,-122.6781372,I5 - ALBERTA ST NB OFF RAMP,N,,49,124512283,F,20.66657358
"LineString (-122.68675846088935089 45.60769926594487345, -122.68675000000000352 45.60767500000000041)",409,2017-11-14T00:00:00-08:00,2017-11-14T01:00:00-08:00,45.60769927,-122.6867585,NORTH MARINE DRIVE,E,,150,762500236,T,2.776593356
"LineString (-122.68675846088935089 45.60769926594487345, -122.68675000000000352 45.60767500000000041)",409,2017-11-14T00:00:00-08:00,2017-11-14T01:00:00-08:00,45.60769927,-122.6867585,NORTH MARINE DRIVE,W,,78,762500236,F,2.776593356
"LineString (-122.67941949911786992 45.54601024785701213, -122.6794749999999965 45.54596499999999537)",410,2017-11-14T00:00:00-08:00,2017-11-14T01:00:00-08:00,45.54601025,-122.6794195,N INTERSTATE AVENUE,N,,33,1060812804,F,6.639024512
"LineString (-122.67941949911786992 45.54601024785701213, -122.6794749999999965 45.54596499999999537)",410,2017-11-14T00:00:00-08:00,2017-11-14T01:00:00-08:00,45.54601025,-122.6794195,N INTERSTATE AVENUE,S,,11,1060812806,T,6.639024512
"LineString (-122.80376299173899213 45.3695593406045532, -122.80428499999999303 45.36950500000000375)",412,2017-11-16T00:00:00-08:00,2017-11-16T01:00:00-08:00,45.36955934,-122.803763,SW TUALATIN SHERWOOD ROAD,E,,86,999934466,F,41.33683405
"LineString (-122.80376299173899213 45.3695593406045532, -122.80428499999999303 45.36950500000000375)",412,2017-11-16T00:00:00-08:00,2017-11-16T01:00:00-08:00,45.36955934,-122.803763,SW TUALATIN SHERWOOD ROAD,W,,108,999934466,T,41.33683405
"LineString (-122.65717278573139026 45.28706250200893635, -122.65297999999999945 45.3217250000000007)",414,2017-11-16T00:00:00-08:00,2017-11-16T01:00:00-08:00,45.2870625,-122.6571728,S HWY 99E,N,,38,781806789,F,3866.320295
"LineString (-122.65717278573139026 45.28706250200893635, -122.65297999999999945 45.3217250000000007)",414,2017-11-16T00:00:00-08:00,2017-11-16T01:00:00-08:00,45.2870625,-122.6571728,S HWY 99E,S,,43,781806789,T,3866.320295
"LineString (-122.56713207023705081 45.28105239909240254, -122.56393500000000074 45.29222500000000196)",415,2017-11-29T00:00:00-08:00,2017-11-29T01:00:00-08:00,45.2810524,-122.5671321,S HWY 213,N,,44,21366849,F,1266.772687
"LineString (-122.56713207023705081 45.28105239909240254, -122.56393500000000074 45.29222500000000196)",415,2017-11-29T00:00:00-08:00,2017-11-29T01:00:00-08:00,45.2810524,-122.5671321,S HWY 213,S,,66,21366849,T,1266.772687
"LineString (-122.68136238896177304 45.58421896870226675, -122.68119500000000244 45.584344999999999)",417,2017-11-14T00:00:00-08:00,2017-11-14T01:00:00-08:00,45.58421897,-122.6813624,N COLUMBIA BOULEVARD,E,,95,121764500,T,19.15357701
"LineString (-122.68136238896177304 45.58421896870226675, -122.68119500000000244 45.584344999999999)",417,2017-11-14T00:00:00-08:00,2017-11-14T01:00:00-08:00,45.58421897,-122.6813624,N COLUMBIA BOULEVARD,W,,137,121764500,F,19.15357701
"LineString (-122.6808331262343188 45.577166992031799, -122.68075999999999226 45.57716500000000082)",418,2017-12-07T00:00:00-08:00,2017-12-07T01:00:00-08:00,45.57716699,-122.6808331,N LOMBARD STREET,W,,142,762160262,T,5.711884949
"LineString (-122.6806623331335544 45.56990150748485746, -122.68203499999999906 45.5703850000000017)",419,2017-11-14T00:00:00-08:00,2017-11-14T01:00:00-08:00,45.56990151,-122.6806623,N ROSA PARKS WAY,E,,30,,,119.8712854
"LineString (-122.68073638711089757 45.55614165935497084, -122.68050999999999817 45.55612500000000153)",422,2017-11-28T00:00:00-08:00,2017-11-28T01:00:00-08:00,45.55614166,-122.6807364,N GOING STREET,E,,121,822681430,T,17.77309683
"LineString (-122.68073638711089757 45.55614165935497084, -122.68050999999999817 45.55612500000000153)",422,2017-11-28T00:00:00-08:00,2017-11-28T01:00:00-08:00,45.55614166,-122.6807364,N GOING STREET,W,,134,822681430,F,17.77309683
"LineString (-122.53852343346729015 45.55730492794494069, -122.53906000000000631 45.55736999999999881)",423,2017-11-28T00:00:00-08:00,2017-11-28T01:00:00-08:00,45.55730493,-122.5385234,NE SANDY BOULEVARD,E,,78,21289575,T,42.51409013
"LineString (-122.53852343346729015 45.55730492794494069, -122.53906000000000631 45.55736999999999881)",423,2017-11-28T00:00:00-08:00,2017-11-28T01:00:00-08:00,45.55730493,-122.5385234,NE SANDY BOULEVARD,W,,83,21289575,F,42.51409013
"LineString (-122.65296897027037915 45.46532734366556383, -122.64709999999999468 45.46556499999999801)",429,2017-11-14T13:00:00-08:00,2017-11-14T14:00:00-08:00,45.46532734,-122.652969,SE 13TH AVENUE,N,,217,,,459.747219
"LineString (-122.65296897027037915 45.46532734366556383, -122.64709999999999468 45.46556499999999801)",429,2017-11-14T13:00:00-08:00,2017-11-14T14:00:00-08:00,45.46532734,-122.652969,SE 13TH AVENUE,S,,193,,,459.747219
"LineString (-122.64706389085834815 45.46531198541519103, -122.64704499999999143 45.46523000000000536)",430,2017-11-30T00:00:00-08:00,2017-11-30T01:00:00-08:00,45.46531199,-122.6470639,SE 17TH AVENUE,N,,16,1092483490,F,9.230921724
"LineString (-122.64706389085834815 45.46531198541519103, -122.64704499999999143 45.46523000000000536)",430,2017-11-30T00:00:00-08:00,2017-11-30T01:00:00-08:00,45.46531199,-122.6470639,SE 17TH AVENUE,S,,23,1092483490,T,9.230921724
"LineString (-122.66396411153395718 45.41016114712195417, -122.66409500000000321 45.4103500000000011)",432,2017-12-07T00:00:00-08:00,2017-12-07T01:00:00-08:00,45.41016115,-122.6639641,HWY 43,N,,23,931206300,F,23.35650358
"LineString (-122.66396411153395718 45.41016114712195417, -122.66409500000000321 45.4103500000000011)",432,2017-12-07T00:00:00-08:00,2017-12-07T01:00:00-08:00,45.41016115,-122.6639641,HWY 43,S,,38,931206300,T,23.35650358
